\select@language {english}
\contentsline {chapter}{\numberline {1}Modules}{3}{chapter.1}
\contentsline {chapter}{\numberline {2}Example gallery}{5}{chapter.2}
\contentsline {section}{\numberline {2.1}module1\_example01}{5}{section.2.1}
\contentsline {chapter}{\numberline {3}Test status}{7}{chapter.3}
\contentsline {chapter}{\numberline {4}Indices and tables}{9}{chapter.4}
\contentsline {chapter}{Python Module Index}{11}{section*.10}
\contentsline {chapter}{Index}{13}{section*.11}
