\relax 
\providecommand\hyper@newdestlabel[2]{}
\providecommand\HyperFirstAtBeginDocument{\AtBeginDocument}
\HyperFirstAtBeginDocument{\ifx\hyper@anchor\@undefined
\global\let\oldcontentsline\contentsline
\gdef\contentsline#1#2#3#4{\oldcontentsline{#1}{#2}{#3}}
\global\let\oldnewlabel\newlabel
\gdef\newlabel#1#2{\newlabelxx{#1}#2}
\gdef\newlabelxx#1#2#3#4#5#6{\oldnewlabel{#1}{{#2}{#3}}}
\AtEndDocument{\ifx\hyper@anchor\@undefined
\let\contentsline\oldcontentsline
\let\newlabel\oldnewlabel
\fi}
\fi}
\global\let\hyper@last\relax 
\gdef\HyperFirstAtBeginDocument#1{#1}
\providecommand\HyField@AuxAddToFields[1]{}
\providecommand\HyField@AuxAddToCoFields[2]{}
\select@language{english}
\@writefile{toc}{\select@language{english}}
\@writefile{lof}{\select@language{english}}
\@writefile{lot}{\select@language{english}}
\newlabel{index::doc}{{}{1}{}{section*.2}{}}
\@writefile{toc}{\contentsline {chapter}{\numberline {1}Modules}{3}{chapter.1}}
\@writefile{lof}{\addvspace {10\p@ }}
\@writefile{lot}{\addvspace {10\p@ }}
\newlabel{package_modules:modules}{{1}{3}{Modules}{chapter.1}{}}
\newlabel{package_modules:module-package_name.module1}{{1}{3}{Modules}{chapter.1}{}}
\newlabel{package_modules::doc}{{1}{3}{Modules}{chapter.1}{}}
\newlabel{package_modules:welcome-to-package-name-s-documentation}{{1}{3}{Modules}{chapter.1}{}}
\newlabel{package_modules:module-useful_1}{{1}{3}{Modules}{section*.3}{}}
\newlabel{package_modules:package_name.module1.MyPublicClass}{{1}{3}{Modules}{section*.4}{}}
\newlabel{package_modules:package_name.module1.MyPublicClass.get_foobar}{{1}{3}{Modules}{section*.5}{}}
\newlabel{package_modules:package_name.module1.public_fn_with_googley_docstring}{{1}{3}{Modules}{section*.6}{}}
\newlabel{package_modules:package_name.module1.public_fn_with_sphinxy_docstring}{{1}{3}{Modules}{section*.7}{}}
\newlabel{package_modules:module-package_name.module2}{{1}{4}{Modules}{section*.8}{}}
\newlabel{package_modules:package_name.module2.sheep}{{1}{4}{Modules}{section*.9}{}}
\@writefile{toc}{\contentsline {chapter}{\numberline {2}Example gallery}{5}{chapter.2}}
\@writefile{lof}{\addvspace {10\p@ }}
\@writefile{lot}{\addvspace {10\p@ }}
\newlabel{examples:example-gallery}{{2}{5}{Example gallery}{chapter.2}{}}
\newlabel{examples::doc}{{2}{5}{Example gallery}{chapter.2}{}}
\@writefile{toc}{\contentsline {section}{\numberline {2.1}module1\_example01}{5}{section.2.1}}
\newlabel{examples:module1-example01}{{2.1}{5}{module1\_example01}{section.2.1}{}}
\@writefile{toc}{\contentsline {chapter}{\numberline {3}Test status}{7}{chapter.3}}
\@writefile{lof}{\addvspace {10\p@ }}
\@writefile{lot}{\addvspace {10\p@ }}
\newlabel{test_status:test-status}{{3}{7}{Test status}{chapter.3}{}}
\newlabel{test_status::doc}{{3}{7}{Test status}{chapter.3}{}}
\@writefile{toc}{\contentsline {chapter}{\numberline {4}Indices and tables}{9}{chapter.4}}
\@writefile{lof}{\addvspace {10\p@ }}
\@writefile{lot}{\addvspace {10\p@ }}
\newlabel{index:indices-and-tables}{{4}{9}{Indices and tables}{chapter.4}{}}
\@writefile{toc}{\contentsline {chapter}{Python Module Index}{11}{section*.10}}
\@writefile{toc}{\contentsline {chapter}{Index}{13}{section*.11}}
